Task 1/frequency_scaling/simulation/qsim/frequency_scaling.msim.vcd
$comment
	File created using the following command:
		vcd file frequency_scaling.msim.vcd -direction
$end
$date
	Tue Sep 26 00:50:07 2023
$end
$version
	ModelSim Version 2020.1
$end
$timescale
	1ps
$end

$scope module frequency_scaling_vlg_vec_tst $end
$var reg 1 ! clk_50M $end
$var wire 1 " clk_3125KHz $end

$scope module i1 $end
$var wire 1 # gnd $end
$var wire 1 $ vcc $end
$var wire 1 % unknown $end
$var tri1 1 & devclrn $end
$var tri1 1 ' devpor $end
$var tri1 1 ( devoe $end
$var wire 1 ) clk_3125KHz~output_o $end
$var wire 1 * clk_50M~input_o $end
$var wire 1 + clk_50M~inputclkctrl_outclk $end
$var wire 1 , counter[0]~2_combout $end
$var wire 1 - counter[1]~1_combout $end
$var wire 1 . counter[2]~0_combout $end
$var wire 1 / Add0~0_combout $end
$var wire 1 0 clk_3125KHz~reg0feeder_combout $end
$var wire 1 1 clk_3125KHz~reg0_q $end
$var wire 1 2 counter [3] $end
$var wire 1 3 counter [2] $end
$var wire 1 4 counter [1] $end
$var wire 1 5 counter [0] $end
$upscope $end
$upscope $end
$enddefinitions $end
#0
$dumpvars
0!
0"
0#
1$
x%
1&
1'
1(
0)
0*
0+
1,
0-
0.
0/
00
01
05
04
03
02
$end
#10000
1!
1*
1+
15
1-
0,
#20000
0!
0*
0+
#30000
1!
1*
1+
14
05
1,
#40000
0!
0*
0+
#50000
1!
1*
1+
15
1.
0-
0,
#60000
0!
0*
0+
#70000
1!
1*
1+
13
04
05
1,
#80000
0!
0*
0+
#90000
1!
1*
1+
15
1-
0,
#100000
0!
0*
0+
#110000
1!
1*
1+
14
05
1,
#120000
0!
0*
0+
#130000
1!
1*
1+
15
1/
0.
0-
0,
10
#140000
0!
0*
0+
#150000
1!
1*
1+
12
03
04
05
11
1)
1"
1,
#160000
0!
0*
0+
#170000
1!
1*
1+
15
1-
0,
#180000
0!
0*
0+
#190000
1!
1*
1+
14
05
1,
#200000
0!
0*
0+
#210000
1!
1*
1+
15
1.
0-
0,
#220000
0!
0*
0+
#230000
1!
1*
1+
13
04
05
1,
#240000
0!
0*
0+
#250000
1!
1*
1+
15
1-
0,
#260000
0!
0*
0+
#270000
1!
1*
1+
14
05
1,
#280000
0!
0*
0+
#290000
1!
1*
1+
15
0/
0.
0-
0,
00
#300000
0!
0*
0+
#310000
1!
1*
1+
02
03
04
05
01
0)
0"
1,
#320000
0!
0*
0+
#330000
1!
1*
1+
15
1-
0,
#340000
0!
0*
0+
#350000
1!
1*
1+
14
05
1,
#360000
0!
0*
0+
#370000
1!
1*
1+
15
1.
0-
0,
#380000
0!
0*
0+
#390000
1!
1*
1+
13
04
05
1,
#400000
0!
0*
0+
#410000
1!
1*
1+
15
1-
0,
#420000
0!
0*
0+
#430000
1!
1*
1+
14
05
1,
#440000
0!
0*
0+
#450000
1!
1*
1+
15
1/
0.
0-
0,
10
#460000
0!
0*
0+
#470000
1!
1*
1+
12
03
04
05
11
1)
1"
1,
#480000
0!
0*
0+
#490000
1!
1*
1+
15
1-
0,
#500000
0!
0*
0+
#510000
1!
1*
1+
14
05
1,
#520000
0!
0*
0+
#530000
1!
1*
1+
15
1.
0-
0,
#540000
0!
0*
0+
#550000
1!
1*
1+
13
04
05
1,
#560000
0!
0*
0+
#570000
1!
1*
1+
15
1-
0,
#580000
0!
0*
0+
#590000
1!
1*
1+
14
05
1,
#600000
0!
0*
0+
#610000
1!
1*
1+
15
0/
0.
0-
0,
00
#620000
0!
0*
0+
#630000
1!
1*
1+
02
03
04
05
01
0)
0"
1,
#640000
0!
0*
0+
#650000
1!
1*
1+
15
1-
0,
#660000
0!
0*
0+
#670000
1!
1*
1+
14
05
1,
#680000
0!
0*
0+
#690000
1!
1*
1+
15
1.
0-
0,
#700000
0!
0*
0+
#710000
1!
1*
1+
13
04
05
1,
#720000
0!
0*
0+
#730000
1!
1*
1+
15
1-
0,
#740000
0!
0*
0+
#750000
1!
1*
1+
14
05
1,
#760000
0!
0*
0+
#770000
1!
1*
1+
15
1/
0.
0-
0,
10
#780000
0!
0*
0+
#790000
1!
1*
1+
12
03
04
05
11
1)
1"
1,
#800000
0!
0*
0+
#810000
1!
1*
1+
15
1-
0,
#820000
0!
0*
0+
#830000
1!
1*
1+
14
05
1,
#840000
0!
0*
0+
#850000
1!
1*
1+
15
1.
0-
0,
#860000
0!
0*
0+
#870000
1!
1*
1+
13
04
05
1,
#880000
0!
0*
0+
#890000
1!
1*
1+
15
1-
0,
#900000
0!
0*
0+
#910000
1!
1*
1+
14
05
1,
#920000
0!
0*
0+
#930000
1!
1*
1+
15
0/
0.
0-
0,
00
#940000
0!
0*
0+
#950000
1!
1*
1+
02
03
04
05
01
0)
0"
1,
#960000
0!
0*
0+
#970000
1!
1*
1+
15
1-
0,
#980000
0!
0*
0+
#990000
1!
1*
1+
14
05
1,
